{
  "contractName": "OwnableInterface",
  "abi": [
    {
      "inputs": [],
      "name": "owner",
      "outputs": [
        {
          "internalType": "address",
          "name": "",
          "type": "address"
        }
      ],
      "stateMutability": "nonpayable",
      "type": "function"
    },
    {
      "inputs": [
        {
          "internalType": "address",
          "name": "recipient",
          "type": "address"
        }
      ],
      "name": "transferOwnership",
      "outputs": [],
      "stateMutability": "nonpayable",
      "type": "function"
    },
    {
      "inputs": [],
      "name": "acceptOwnership",
      "outputs": [],
      "stateMutability": "nonpayable",
      "type": "function"
    }
  ],
  "metadata": "{\"compiler\":{\"version\":\"0.8.17+commit.8df45f5f\"},\"language\":\"Solidity\",\"output\":{\"abi\":[{\"inputs\":[],\"name\":\"acceptOwnership\",\"outputs\":[],\"stateMutability\":\"nonpayable\",\"type\":\"function\"},{\"inputs\":[],\"name\":\"owner\",\"outputs\":[{\"internalType\":\"address\",\"name\":\"\",\"type\":\"address\"}],\"stateMutability\":\"nonpayable\",\"type\":\"function\"},{\"inputs\":[{\"internalType\":\"address\",\"name\":\"recipient\",\"type\":\"address\"}],\"name\":\"transferOwnership\",\"outputs\":[],\"stateMutability\":\"nonpayable\",\"type\":\"function\"}],\"devdoc\":{\"kind\":\"dev\",\"methods\":{},\"version\":1},\"userdoc\":{\"kind\":\"user\",\"methods\":{},\"version\":1}},\"settings\":{\"compilationTarget\":{\"@chainlink/contracts/src/v0.8/interfaces/OwnableInterface.sol\":\"OwnableInterface\"},\"evmVersion\":\"london\",\"libraries\":{},\"metadata\":{\"bytecodeHash\":\"ipfs\"},\"optimizer\":{\"enabled\":false,\"runs\":200},\"remappings\":[]},\"sources\":{\"@chainlink/contracts/src/v0.8/interfaces/OwnableInterface.sol\":{\"keccak256\":\"0xb8b3a97783dddc198b790c4cec1eda7fb47aa38cbaea6555220d0ed8c735c086\",\"license\":\"MIT\",\"urls\":[\"bzz-raw://acf7ed6aff47fbddeff1b85e1225a717dfa8bfb3ab89db0e6564346afcf03693\",\"dweb:/ipfs/QmQQn5sKn1ARbt1WhYoHwfTJhK8fbQi8MbDQeHxGXTPbPE\"]}},\"version\":1}",
  "bytecode": "0x",
  "deployedBytecode": "0x",
  "immutableReferences": {},
  "generatedSources": [],
  "deployedGeneratedSources": [],
  "sourceMap": "",
  "deployedSourceMap": "",
  "source": "// SPDX-License-Identifier: MIT\npragma solidity ^0.8.0;\n\ninterface OwnableInterface {\n  function owner() external returns (address);\n\n  function transferOwnership(address recipient) external;\n\n  function acceptOwnership() external;\n}\n",
  "sourcePath": "@chainlink/contracts/src/v0.8/interfaces/OwnableInterface.sol",
  "ast": {
    "absolutePath": "@chainlink/contracts/src/v0.8/interfaces/OwnableInterface.sol",
    "exportedSymbols": {
      "OwnableInterface": [
        255
      ]
    },
    "id": 256,
    "license": "MIT",
    "nodeType": "SourceUnit",
    "nodes": [
      {
        "id": 241,
        "literals": [
          "solidity",
          "^",
          "0.8",
          ".0"
        ],
        "nodeType": "PragmaDirective",
        "src": "32:23:3"
      },
      {
        "abstract": false,
        "baseContracts": [],
        "canonicalName": "OwnableInterface",
        "contractDependencies": [],
        "contractKind": "interface",
        "fullyImplemented": false,
        "id": 255,
        "linearizedBaseContracts": [
          255
        ],
        "name": "OwnableInterface",
        "nameLocation": "67:16:3",
        "nodeType": "ContractDefinition",
        "nodes": [
          {
            "functionSelector": "8da5cb5b",
            "id": 246,
            "implemented": false,
            "kind": "function",
            "modifiers": [],
            "name": "owner",
            "nameLocation": "97:5:3",
            "nodeType": "FunctionDefinition",
            "parameters": {
              "id": 242,
              "nodeType": "ParameterList",
              "parameters": [],
              "src": "102:2:3"
            },
            "returnParameters": {
              "id": 245,
              "nodeType": "ParameterList",
              "parameters": [
                {
                  "constant": false,
                  "id": 244,
                  "mutability": "mutable",
                  "name": "",
                  "nameLocation": "-1:-1:-1",
                  "nodeType": "VariableDeclaration",
                  "scope": 246,
                  "src": "123:7:3",
                  "stateVariable": false,
                  "storageLocation": "default",
                  "typeDescriptions": {
                    "typeIdentifier": "t_address",
                    "typeString": "address"
                  },
                  "typeName": {
                    "id": 243,
                    "name": "address",
                    "nodeType": "ElementaryTypeName",
                    "src": "123:7:3",
                    "stateMutability": "nonpayable",
                    "typeDescriptions": {
                      "typeIdentifier": "t_address",
                      "typeString": "address"
                    }
                  },
                  "visibility": "internal"
                }
              ],
              "src": "122:9:3"
            },
            "scope": 255,
            "src": "88:44:3",
            "stateMutability": "nonpayable",
            "virtual": false,
            "visibility": "external"
          },
          {
            "functionSelector": "f2fde38b",
            "id": 251,
            "implemented": false,
            "kind": "function",
            "modifiers": [],
            "name": "transferOwnership",
            "nameLocation": "145:17:3",
            "nodeType": "FunctionDefinition",
            "parameters": {
              "id": 249,
              "nodeType": "ParameterList",
              "parameters": [
                {
                  "constant": false,
                  "id": 248,
                  "mutability": "mutable",
                  "name": "recipient",
                  "nameLocation": "171:9:3",
                  "nodeType": "VariableDeclaration",
                  "scope": 251,
                  "src": "163:17:3",
                  "stateVariable": false,
                  "storageLocation": "default",
                  "typeDescriptions": {
                    "typeIdentifier": "t_address",
                    "typeString": "address"
                  },
                  "typeName": {
                    "id": 247,
                    "name": "address",
                    "nodeType": "ElementaryTypeName",
                    "src": "163:7:3",
                    "stateMutability": "nonpayable",
                    "typeDescriptions": {
                      "typeIdentifier": "t_address",
                      "typeString": "address"
                    }
                  },
                  "visibility": "internal"
                }
              ],
              "src": "162:19:3"
            },
            "returnParameters": {
              "id": 250,
              "nodeType": "ParameterList",
              "parameters": [],
              "src": "190:0:3"
            },
            "scope": 255,
            "src": "136:55:3",
            "stateMutability": "nonpayable",
            "virtual": false,
            "visibility": "external"
          },
          {
            "functionSelector": "79ba5097",
            "id": 254,
            "implemented": false,
            "kind": "function",
            "modifiers": [],
            "name": "acceptOwnership",
            "nameLocation": "204:15:3",
            "nodeType": "FunctionDefinition",
            "parameters": {
              "id": 252,
              "nodeType": "ParameterList",
              "parameters": [],
              "src": "219:2:3"
            },
            "returnParameters": {
              "id": 253,
              "nodeType": "ParameterList",
              "parameters": [],
              "src": "230:0:3"
            },
            "scope": 255,
            "src": "195:36:3",
            "stateMutability": "nonpayable",
            "virtual": false,
            "visibility": "external"
          }
        ],
        "scope": 256,
        "src": "57:176:3",
        "usedErrors": []
      }
    ],
    "src": "32:202:3"
  },
  "compiler": {
    "name": "solc",
    "version": "0.8.17+commit.8df45f5f.Emscripten.clang"
  },
  "networks": {},
  "schemaVersion": "3.4.8",
  "updatedAt": "2022-11-14T21:09:04.820Z",
  "devdoc": {
    "kind": "dev",
    "methods": {},
    "version": 1
  },
  "userdoc": {
    "kind": "user",
    "methods": {},
    "version": 1
  }
}